{
  "metadata": {
    "endpoint_group": "confluence",
    "base_path": "/api/confluence",
    "controller": "App\\Http\\Controllers\\Api\\ConfluenceController",
    "resources": [
      "App\\Http\\Resources\\ConfluenceSpaceResource",
      "App\\Http\\Resources\\ConfluencePageResource",
      "App\\Http\\Resources\\ConfluenceSearchResultResource"
    ],
    "response_wrapper": "App\\Http\\Responses\\ApiResponse"
  },
  "endpoints": [
    {
      "name": "List Confluence spaces",
      "method": "GET",
      "path": "/api/confluence/spaces",
      "auth": "sanctum",
      "query_params": {
        "query": {"type": "string", "optional": true, "description": "Search query to filter spaces"},
        "type": {"type": "string", "enum": ["global", "personal"], "optional": true},
        "per_page": {"type": "integer", "default": 15, "min": 1, "max": 100, "optional": true}
      },
      "response": {
        "status": 200,
        "shape": {
          "data": [
            {
              "uuid": "550e8400-e29b-41d4-a716-446655440000",
              "confluence_id": "123456",
              "key": "DEV",
              "name": "Development Documentation",
              "description": "Technical documentation for developers",
              "type": "global",
              "status": "current",
              "homepage_id": "789012",
              "icon_url": null,
              "last_synced_at": "2026-01-28T12:00:00+00:00",
              "_links": {
                "self": {"href": "/api/confluence/spaces/DEV", "method": "GET"},
                "search": {"href": "/api/confluence/pages/search?space=DEV", "method": "GET"}
              }
            }
          ],
          "meta": {
            "current_page": 1,
            "per_page": 15,
            "total": 10,
            "last_page": 1,
            "from": 1,
            "to": 10
          },
          "_links": {
            "first": "/api/confluence/spaces?page=1",
            "last": "/api/confluence/spaces?page=1",
            "prev": null,
            "next": null
          }
        }
      }
    },
    {
      "name": "Show Confluence space",
      "method": "GET",
      "path": "/api/confluence/spaces/{key}",
      "auth": "sanctum",
      "url_params": {
        "key": {"type": "string", "description": "Space key"}
      },
      "response": {
        "status": 200,
        "shape": {
          "data": {
            "uuid": "550e8400-e29b-41d4-a716-446655440000",
            "confluence_id": "123456",
            "key": "DEV",
            "name": "Development Documentation",
            "description": "Technical documentation for developers",
            "type": "global",
            "status": "current",
            "homepage_id": "789012",
            "icon_url": null,
            "last_synced_at": "2026-01-28T12:00:00+00:00",
            "_links": {
              "self": {"href": "/api/confluence/spaces/DEV", "method": "GET"},
              "search": {"href": "/api/confluence/pages/search?space=DEV", "method": "GET"}
            }
          },
          "meta": {
            "message": "Success",
            "timestamp": "2026-01-29T10:30:00+00:00"
          }
        }
      },
      "error_responses": [
        {"status": 404, "shape": {"error": {"message": "Space not found", "code": 404}, "meta": {"timestamp": "..."}}}
      ]
    },
    {
      "name": "Search Confluence pages",
      "method": "GET",
      "path": "/api/confluence/pages/search",
      "auth": "sanctum",
      "query_params": {
        "cql": {"type": "string", "optional": true, "description": "CQL query for advanced search"},
        "query": {"type": "string", "optional": true, "description": "Simple full-text search query"},
        "space": {"type": "string", "optional": true, "description": "Filter by space key"},
        "limit": {"type": "integer", "default": 25, "min": 1, "max": 50, "optional": true},
        "start": {"type": "integer", "default": 0, "optional": true}
      },
      "response": {
        "status": 200,
        "shape": {
          "data": [
            {
              "id": "123456",
              "title": "Middleware Guide",
              "space_key": "DEV",
              "web_url": "https://confluence.example.com/display/DEV/Middleware+Guide",
              "excerpt": "HTTP middleware provide a convenient mechanism...",
              "labels": ["documentation", "middleware"],
              "_links": {
                "self": {"href": "/api/confluence/pages/123456", "method": "GET"}
              }
            }
          ],
          "meta": {
            "total": 50,
            "start": 0,
            "limit": 25,
            "has_more": true,
            "cql": "type = page AND text ~ \"middleware\""
          },
          "_links": {
            "self": {"href": "/api/confluence/pages/search?query=middleware", "method": "GET"},
            "next": {"href": "/api/confluence/pages/search?query=middleware&start=25", "method": "GET"}
          }
        }
      },
      "error_responses": [
        {"status": 400, "shape": {"error": {"message": "Either \"cql\" or \"query\" parameter is required", "code": 400}, "meta": {"timestamp": "..."}}}
      ]
    },
    {
      "name": "Read Confluence page",
      "method": "GET",
      "path": "/api/confluence/pages/{pageId}",
      "auth": "sanctum",
      "url_params": {
        "pageId": {"type": "string", "description": "Confluence page ID"}
      },
      "response": {
        "status": 200,
        "shape": {
          "data": {
            "id": "123456",
            "title": "Middleware Guide",
            "space_key": "DEV",
            "parent_id": "123000",
            "web_url": "https://confluence.example.com/display/DEV/Middleware+Guide",
            "version": "5",
            "created_at": "2025-06-15T10:30:00+00:00",
            "updated_at": "2026-01-20T14:00:00+00:00",
            "labels": ["documentation", "middleware"],
            "ancestors": [
              {"id": "123000", "title": "Development Docs"}
            ],
            "content": "# Middleware Guide\n\nHTTP middleware provide a convenient mechanism...",
            "_links": {
              "self": {"href": "/api/confluence/pages/123456", "method": "GET"},
              "space": {"href": "/api/confluence/spaces/DEV", "method": "GET"}
            }
          },
          "meta": {
            "message": "Success",
            "timestamp": "2026-01-29T10:30:00+00:00"
          }
        }
      },
      "error_responses": [
        {"status": 404, "shape": {"error": {"message": "Page not found: 999999 (HTTP 404)", "code": 404}, "meta": {"timestamp": "..."}}}
      ]
    }
  ]
}
